\relax 
\@writefile{lot}{\contentsline {table}{\numberline {1}{\ignorespaces System Commands}}{1}\protected@file@percent }
\@writefile{lot}{\contentsline {table}{\numberline {2}{\ignorespaces File permissions}}{1}\protected@file@percent }
